---
http_interactions:
- request:
    method: get
    uri: https://pokeapi.co/api/v2/pokemon?limit=20&offset=0
    body:
      encoding: US-ASCII
      string: ''
    headers:
      Accept:
      - "*/*"
      User-Agent:
      - rest-client/2.1.0 (darwin23 arm64) ruby/3.0.0p0
      Accept-Encoding:
      - gzip;q=1.0,deflate;q=0.6,identity;q=0.3
      Host:
      - pokeapi.co
  response:
    status:
      code: 200
      message: OK
    headers:
      Date:
      - Wed, 14 Feb 2024 17:09:00 GMT
      Content-Type:
      - application/json; charset=utf-8
      Content-Length:
      - '308'
      Connection:
      - keep-alive
      Access-Control-Allow-Origin:
      - "*"
      Cache-Control:
      - public, max-age=86400, s-maxage=86400
      Etag:
      - W/"588-/X6dSpO6F3LPFuUhaJHfN5AqUco"
      Function-Execution-Id:
      - ge5j0faetgqw
      Strict-Transport-Security:
      - max-age=31556926
      X-Cloud-Trace-Context:
      - 60ae0db8e22f6a037868c12dd11a911a;o=1
      X-Country-Code:
      - US
      X-Orig-Accept-Language:
      - en-US,en;q=0.9,es;q=0.8
      X-Powered-By:
      - Express
      X-Served-By:
      - cache-mia-kmia1760092-MIA
      X-Cache:
      - HIT
      X-Cache-Hits:
      - '1'
      X-Timer:
      - S1706056842.926875,VS0,VE4
      Vary:
      - Accept-Encoding,cookie,need-authorization, x-fh-requested-host, accept-encoding
      Alt-Svc:
      - h3=":443"; ma=86400
      Cf-Cache-Status:
      - HIT
      Age:
      - '7036'
      Accept-Ranges:
      - bytes
      Report-To:
      - '{"endpoints":[{"url":"https:\/\/a.nel.cloudflare.com\/report\/v3?s=S8QScpvOFpfrB3EFS2GLqdTy8fzIitnI4yFxkn7rcHOwTX11Nk5peXf71q75hubWRGC9nkfZqMjXHmrsXKiFk05p41Gl8o1Rl0e1QvUfCyng2q2BtqMrkvXZE%2Fb5"}],"group":"cf-nel","max_age":604800}'
      Nel:
      - '{"success_fraction":0,"report_to":"cf-nel","max_age":604800}'
      Server:
      - cloudflare
      Cf-Ray:
      - 8556ea930995742a-MIA
    body:
      encoding: ASCII-8BIT
      string: '{"count":1302,"next":"https://pokeapi.co/api/v2/pokemon?offset=20&limit=20","previous":null,"results":[{"name":"bulbasaur","url":"https://pokeapi.co/api/v2/pokemon/1/"},{"name":"ivysaur","url":"https://pokeapi.co/api/v2/pokemon/2/"},{"name":"venusaur","url":"https://pokeapi.co/api/v2/pokemon/3/"},{"name":"charmander","url":"https://pokeapi.co/api/v2/pokemon/4/"},{"name":"charmeleon","url":"https://pokeapi.co/api/v2/pokemon/5/"},{"name":"charizard","url":"https://pokeapi.co/api/v2/pokemon/6/"},{"name":"squirtle","url":"https://pokeapi.co/api/v2/pokemon/7/"},{"name":"wartortle","url":"https://pokeapi.co/api/v2/pokemon/8/"},{"name":"blastoise","url":"https://pokeapi.co/api/v2/pokemon/9/"},{"name":"caterpie","url":"https://pokeapi.co/api/v2/pokemon/10/"},{"name":"metapod","url":"https://pokeapi.co/api/v2/pokemon/11/"},{"name":"butterfree","url":"https://pokeapi.co/api/v2/pokemon/12/"},{"name":"weedle","url":"https://pokeapi.co/api/v2/pokemon/13/"},{"name":"kakuna","url":"https://pokeapi.co/api/v2/pokemon/14/"},{"name":"beedrill","url":"https://pokeapi.co/api/v2/pokemon/15/"},{"name":"pidgey","url":"https://pokeapi.co/api/v2/pokemon/16/"},{"name":"pidgeotto","url":"https://pokeapi.co/api/v2/pokemon/17/"},{"name":"pidgeot","url":"https://pokeapi.co/api/v2/pokemon/18/"},{"name":"rattata","url":"https://pokeapi.co/api/v2/pokemon/19/"},{"name":"raticate","url":"https://pokeapi.co/api/v2/pokemon/20/"}]}'
  recorded_at: Wed, 14 Feb 2024 17:08:59 GMT
recorded_with: VCR 6.2.0
